Time of Error: 28-03-2020 04:25 PM
URL: http://localhost:4933/AdminCms/Style
Form: style=&btnAction=Submit
QueryString: 
Server Name: localhost
User Agent: Mozilla/5.0 (Windows NT 10.0; Win64; x64) AppleWebKit/537.36 (KHTML, like Gecko) Chrome/80.0.3987.149 Safari/537.36
User IP: ::1
User Host Name: ::1
Message: Procedure or function 'spAddStyle' expects parameter '@pinStyle', which was not supplied.
Source: .Net SqlClient Data Provider
TargetSite: Void OnError(System.Data.SqlClient.SqlException, Boolean, System.Action`1[System.Action])
StackTrace:    at System.Data.SqlClient.SqlConnection.OnError(SqlException exception, Boolean breakConnection, Action`1 wrapCloseInAction)
   at System.Data.SqlClient.SqlInternalConnection.OnError(SqlException exception, Boolean breakConnection, Action`1 wrapCloseInAction)
   at System.Data.SqlClient.TdsParser.ThrowExceptionAndWarning(TdsParserStateObject stateObj, Boolean callerHasConnectionLock, Boolean asyncClose)
   at System.Data.SqlClient.TdsParser.TryRun(RunBehavior runBehavior, SqlCommand cmdHandler, SqlDataReader dataStream, BulkCopySimpleResultSet bulkCopyHandler, TdsParserStateObject stateObj, Boolean& dataReady)
   at System.Data.SqlClient.SqlCommand.FinishExecuteReader(SqlDataReader ds, RunBehavior runBehavior, String resetOptionsString)
   at System.Data.SqlClient.SqlCommand.RunExecuteReaderTds(CommandBehavior cmdBehavior, RunBehavior runBehavior, Boolean returnStream, Boolean async, Int32 timeout, Task& task, Boolean asyncWrite, SqlDataReader ds, Boolean describeParameterEncryptionRequest)
   at System.Data.SqlClient.SqlCommand.RunExecuteReader(CommandBehavior cmdBehavior, RunBehavior runBehavior, Boolean returnStream, String method, TaskCompletionSource`1 completion, Int32 timeout, Task& task, Boolean asyncWrite)
   at System.Data.SqlClient.SqlCommand.InternalExecuteNonQuery(TaskCompletionSource`1 completion, String methodName, Boolean sendToPipe, Int32 timeout, Boolean asyncWrite)
   at System.Data.SqlClient.SqlCommand.ExecuteNonQuery()
   at Astaguru.Models.Utility.Execute(SqlCommand cmd) in F:\Ajay\project\Astaguru\AstaGuru18_3_2020_Home\AstaGuru18_3_2020_Home\astaguru_26_01_2020_current\astaguru\Astaguru\Models\Utility.cs:line 30




Time of Error: 28-03-2020 06:55 PM
URL: http://localhost:4933/AdminCms/Style
Form: 
QueryString: 
Server Name: localhost
User Agent: Mozilla/5.0 (Windows NT 10.0; Win64; x64) AppleWebKit/537.36 (KHTML, like Gecko) Chrome/80.0.3987.149 Safari/537.36
User IP: ::1
User Host Name: ::1
Message: Column 'Sr' does not belong to table .
Source: System.Data
TargetSite: System.Data.DataColumn GetDataColumn(System.String)
StackTrace:    at System.Data.DataRow.GetDataColumn(String columnName)
   at System.Data.DataRow.get_Item(String columnName)
   at Astaguru.Controllers.AdminCmsController.Getstylelist() in F:\Ajay\project\Astaguru\AstaGuru18_3_2020_Home\AstaGuru18_3_2020_Home\astaguru_26_01_2020_current\astaguru\Astaguru\Controllers\AdminCmsController.cs:line 584




Time of Error: 28-03-2020 06:56 PM
URL: http://localhost:4933/AdminCms/Style
Form: 
QueryString: 
Server Name: localhost
User Agent: Mozilla/5.0 (Windows NT 10.0; Win64; x64) AppleWebKit/537.36 (KHTML, like Gecko) Chrome/80.0.3987.149 Safari/537.36
User IP: ::1
User Host Name: ::1
Message: Column 'Sr' does not belong to table .
Source: System.Data
TargetSite: System.Data.DataColumn GetDataColumn(System.String)
StackTrace:    at System.Data.DataRow.GetDataColumn(String columnName)
   at System.Data.DataRow.get_Item(String columnName)
   at Astaguru.Controllers.AdminCmsController.Getstylelist() in F:\Ajay\project\Astaguru\AstaGuru18_3_2020_Home\AstaGuru18_3_2020_Home\astaguru_26_01_2020_current\astaguru\Astaguru\Controllers\AdminCmsController.cs:line 584




