Time of Error: 24-03-2020 11:07 AM
URL: http://localhost:4933/AdminCms/Users/
Form: 
QueryString: 
Server Name: localhost
User Agent: Mozilla/5.0 (Windows NT 10.0; Win64; x64) AppleWebKit/537.36 (KHTML, like Gecko) Chrome/80.0.3987.149 Safari/537.36
User IP: ::1
User Host Name: ::1
Message: String was not recognized as a valid Boolean.
Source: mscorlib
TargetSite: Boolean Parse(System.String)
StackTrace:    at System.Boolean.Parse(String value)
   at System.Convert.ToBoolean(String value)
   at Astaguru.Controllers.AdminCmsController.GetUserList() in F:\Ajay\project\Astaguru\AstaGuru18_3_2020_Home\AstaGuru18_3_2020_Home\astaguru_26_01_2020_current\astaguru\Astaguru\Controllers\AdminCmsController.cs:line 1559




Time of Error: 24-03-2020 11:10 AM
URL: http://localhost:4933/AdminCms/Users/
Form: 
QueryString: 
Server Name: localhost
User Agent: Mozilla/5.0 (Windows NT 10.0; Win64; x64) AppleWebKit/537.36 (KHTML, like Gecko) Chrome/80.0.3987.149 Safari/537.36
User IP: ::1
User Host Name: ::1
Message: String was not recognized as a valid Boolean.
Source: mscorlib
TargetSite: Boolean Parse(System.String)
StackTrace:    at System.Boolean.Parse(String value)
   at System.Convert.ToBoolean(String value)
   at Astaguru.Controllers.AdminCmsController.GetUserList()




Time of Error: 24-03-2020 11:37 AM
URL: http://localhost:4933/AdminCms/Users
Form: 
QueryString: 
Server Name: localhost
User Agent: Mozilla/5.0 (Windows NT 10.0; Win64; x64) AppleWebKit/537.36 (KHTML, like Gecko) Chrome/80.0.3987.149 Safari/537.36
User IP: ::1
User Host Name: ::1
Message: String must be exactly one character long.
Source: mscorlib
TargetSite: Char ToChar(System.String, System.IFormatProvider)
StackTrace:    at System.Convert.ToChar(String value, IFormatProvider provider)
   at System.Convert.ToChar(String value)
   at Astaguru.Controllers.AdminCmsController.GetUserList()




Time of Error: 24-03-2020 11:37 AM
URL: http://localhost:4933/AdminCms/Users
Form: 
QueryString: 
Server Name: localhost
User Agent: Mozilla/5.0 (Windows NT 10.0; Win64; x64) AppleWebKit/537.36 (KHTML, like Gecko) Chrome/80.0.3987.149 Safari/537.36
User IP: ::1
User Host Name: ::1
Message: String must be exactly one character long.
Source: mscorlib
TargetSite: Char ToChar(System.String, System.IFormatProvider)
StackTrace:    at System.Convert.ToChar(String value, IFormatProvider provider)
   at System.Convert.ToChar(String value)
   at Astaguru.Controllers.AdminCmsController.GetUserList()




Time of Error: 24-03-2020 05:38 PM
URL: http://localhost:4933/AdminCms/Users
Form: 
QueryString: 
Server Name: localhost
User Agent: Mozilla/5.0 (Windows NT 10.0; Win64; x64) AppleWebKit/537.36 (KHTML, like Gecko) Chrome/80.0.3987.149 Safari/537.36
User IP: ::1
User Host Name: ::1
Message: String must be exactly one character long.
Source: mscorlib
TargetSite: Char ToChar(System.String, System.IFormatProvider)
StackTrace:    at System.Convert.ToChar(String value, IFormatProvider provider)
   at System.Convert.ToChar(String value)
   at Astaguru.Controllers.AdminCmsController.GetUserList() in F:\Ajay\project\Astaguru\AstaGuru18_3_2020_Home\AstaGuru18_3_2020_Home\astaguru_26_01_2020_current\astaguru\Astaguru\Controllers\AdminCmsController.cs:line 1574




Time of Error: 24-03-2020 05:38 PM
URL: http://localhost:4933/Login/LogProcess
Form: 
QueryString: 
Server Name: localhost
User Agent: Mozilla/5.0 (Windows NT 10.0; Win64; x64) AppleWebKit/537.36 (KHTML, like Gecko) Chrome/80.0.3987.149 Safari/537.36
User IP: ::1
User Host Name: ::1
Message: Could not find stored procedure 'Proc_SuperAdminLogin'.
Source: .Net SqlClient Data Provider
TargetSite: Void OnError(System.Data.SqlClient.SqlException, Boolean, System.Action`1[System.Action])
StackTrace:    at System.Data.SqlClient.SqlConnection.OnError(SqlException exception, Boolean breakConnection, Action`1 wrapCloseInAction)
   at System.Data.SqlClient.SqlInternalConnection.OnError(SqlException exception, Boolean breakConnection, Action`1 wrapCloseInAction)
   at System.Data.SqlClient.TdsParser.ThrowExceptionAndWarning(TdsParserStateObject stateObj, Boolean callerHasConnectionLock, Boolean asyncClose)
   at System.Data.SqlClient.TdsParser.TryRun(RunBehavior runBehavior, SqlCommand cmdHandler, SqlDataReader dataStream, BulkCopySimpleResultSet bulkCopyHandler, TdsParserStateObject stateObj, Boolean& dataReady)
   at System.Data.SqlClient.SqlDataReader.TryConsumeMetaData()
   at System.Data.SqlClient.SqlDataReader.get_MetaData()
   at System.Data.SqlClient.SqlCommand.FinishExecuteReader(SqlDataReader ds, RunBehavior runBehavior, String resetOptionsString)
   at System.Data.SqlClient.SqlCommand.RunExecuteReaderTds(CommandBehavior cmdBehavior, RunBehavior runBehavior, Boolean returnStream, Boolean async, Int32 timeout, Task& task, Boolean asyncWrite, SqlDataReader ds, Boolean describeParameterEncryptionRequest)
   at System.Data.SqlClient.SqlCommand.RunExecuteReader(CommandBehavior cmdBehavior, RunBehavior runBehavior, Boolean returnStream, String method, TaskCompletionSource`1 completion, Int32 timeout, Task& task, Boolean asyncWrite)
   at System.Data.SqlClient.SqlCommand.RunExecuteReader(CommandBehavior cmdBehavior, RunBehavior runBehavior, Boolean returnStream, String method)
   at System.Data.SqlClient.SqlCommand.ExecuteReader(CommandBehavior behavior, String method)
   at System.Data.SqlClient.SqlCommand.ExecuteDbDataReader(CommandBehavior behavior)
   at System.Data.Common.DbCommand.System.Data.IDbCommand.ExecuteReader(CommandBehavior behavior)
   at System.Data.Common.DbDataAdapter.FillInternal(DataSet dataset, DataTable[] datatables, Int32 startRecord, Int32 maxRecords, String srcTable, IDbCommand command, CommandBehavior behavior)
   at System.Data.Common.DbDataAdapter.Fill(DataTable[] dataTables, Int32 startRecord, Int32 maxRecords, IDbCommand command, CommandBehavior behavior)
   at System.Data.Common.DbDataAdapter.Fill(DataTable dataTable)
   at Astaguru.Models.Utility.Display(String query) in F:\Ajay\project\Astaguru\AstaGuru18_3_2020_Home\AstaGuru18_3_2020_Home\astaguru_26_01_2020_current\astaguru\Astaguru\Models\Utility.cs:line 86




Time of Error: 24-03-2020 05:38 PM
URL: http://localhost:4933/Login/LogProcess
Form: 
QueryString: 
Server Name: localhost
User Agent: Mozilla/5.0 (Windows NT 10.0; Win64; x64) AppleWebKit/537.36 (KHTML, like Gecko) Chrome/80.0.3987.149 Safari/537.36
User IP: ::1
User Host Name: ::1
Message: Could not find stored procedure 'Proc_SuperAdminLogin'.
Source: .Net SqlClient Data Provider
TargetSite: Void OnError(System.Data.SqlClient.SqlException, Boolean, System.Action`1[System.Action])
StackTrace:    at System.Data.SqlClient.SqlConnection.OnError(SqlException exception, Boolean breakConnection, Action`1 wrapCloseInAction)
   at System.Data.SqlClient.SqlInternalConnection.OnError(SqlException exception, Boolean breakConnection, Action`1 wrapCloseInAction)
   at System.Data.SqlClient.TdsParser.ThrowExceptionAndWarning(TdsParserStateObject stateObj, Boolean callerHasConnectionLock, Boolean asyncClose)
   at System.Data.SqlClient.TdsParser.TryRun(RunBehavior runBehavior, SqlCommand cmdHandler, SqlDataReader dataStream, BulkCopySimpleResultSet bulkCopyHandler, TdsParserStateObject stateObj, Boolean& dataReady)
   at System.Data.SqlClient.SqlDataReader.TryConsumeMetaData()
   at System.Data.SqlClient.SqlDataReader.get_MetaData()
   at System.Data.SqlClient.SqlCommand.FinishExecuteReader(SqlDataReader ds, RunBehavior runBehavior, String resetOptionsString)
   at System.Data.SqlClient.SqlCommand.RunExecuteReaderTds(CommandBehavior cmdBehavior, RunBehavior runBehavior, Boolean returnStream, Boolean async, Int32 timeout, Task& task, Boolean asyncWrite, SqlDataReader ds, Boolean describeParameterEncryptionRequest)
   at System.Data.SqlClient.SqlCommand.RunExecuteReader(CommandBehavior cmdBehavior, RunBehavior runBehavior, Boolean returnStream, String method, TaskCompletionSource`1 completion, Int32 timeout, Task& task, Boolean asyncWrite)
   at System.Data.SqlClient.SqlCommand.RunExecuteReader(CommandBehavior cmdBehavior, RunBehavior runBehavior, Boolean returnStream, String method)
   at System.Data.SqlClient.SqlCommand.ExecuteReader(CommandBehavior behavior, String method)
   at System.Data.SqlClient.SqlCommand.ExecuteDbDataReader(CommandBehavior behavior)
   at System.Data.Common.DbCommand.System.Data.IDbCommand.ExecuteReader(CommandBehavior behavior)
   at System.Data.Common.DbDataAdapter.FillInternal(DataSet dataset, DataTable[] datatables, Int32 startRecord, Int32 maxRecords, String srcTable, IDbCommand command, CommandBehavior behavior)
   at System.Data.Common.DbDataAdapter.Fill(DataTable[] dataTables, Int32 startRecord, Int32 maxRecords, IDbCommand command, CommandBehavior behavior)
   at System.Data.Common.DbDataAdapter.Fill(DataTable dataTable)
   at Astaguru.Models.Utility.Display(String query) in F:\Ajay\project\Astaguru\AstaGuru18_3_2020_Home\AstaGuru18_3_2020_Home\astaguru_26_01_2020_current\astaguru\Astaguru\Models\Utility.cs:line 86




Time of Error: 24-03-2020 05:38 PM
URL: http://localhost:4933/Login/LogProcess
Form: 
QueryString: 
Server Name: localhost
User Agent: Mozilla/5.0 (Windows NT 10.0; Win64; x64) AppleWebKit/537.36 (KHTML, like Gecko) Chrome/80.0.3987.149 Safari/537.36
User IP: ::1
User Host Name: ::1
Message: Could not find stored procedure 'Proc_SuperAdminLogin'.
Source: .Net SqlClient Data Provider
TargetSite: Void OnError(System.Data.SqlClient.SqlException, Boolean, System.Action`1[System.Action])
StackTrace:    at System.Data.SqlClient.SqlConnection.OnError(SqlException exception, Boolean breakConnection, Action`1 wrapCloseInAction)
   at System.Data.SqlClient.SqlInternalConnection.OnError(SqlException exception, Boolean breakConnection, Action`1 wrapCloseInAction)
   at System.Data.SqlClient.TdsParser.ThrowExceptionAndWarning(TdsParserStateObject stateObj, Boolean callerHasConnectionLock, Boolean asyncClose)
   at System.Data.SqlClient.TdsParser.TryRun(RunBehavior runBehavior, SqlCommand cmdHandler, SqlDataReader dataStream, BulkCopySimpleResultSet bulkCopyHandler, TdsParserStateObject stateObj, Boolean& dataReady)
   at System.Data.SqlClient.SqlDataReader.TryConsumeMetaData()
   at System.Data.SqlClient.SqlDataReader.get_MetaData()
   at System.Data.SqlClient.SqlCommand.FinishExecuteReader(SqlDataReader ds, RunBehavior runBehavior, String resetOptionsString)
   at System.Data.SqlClient.SqlCommand.RunExecuteReaderTds(CommandBehavior cmdBehavior, RunBehavior runBehavior, Boolean returnStream, Boolean async, Int32 timeout, Task& task, Boolean asyncWrite, SqlDataReader ds, Boolean describeParameterEncryptionRequest)
   at System.Data.SqlClient.SqlCommand.RunExecuteReader(CommandBehavior cmdBehavior, RunBehavior runBehavior, Boolean returnStream, String method, TaskCompletionSource`1 completion, Int32 timeout, Task& task, Boolean asyncWrite)
   at System.Data.SqlClient.SqlCommand.RunExecuteReader(CommandBehavior cmdBehavior, RunBehavior runBehavior, Boolean returnStream, String method)
   at System.Data.SqlClient.SqlCommand.ExecuteReader(CommandBehavior behavior, String method)
   at System.Data.SqlClient.SqlCommand.ExecuteDbDataReader(CommandBehavior behavior)
   at System.Data.Common.DbCommand.System.Data.IDbCommand.ExecuteReader(CommandBehavior behavior)
   at System.Data.Common.DbDataAdapter.FillInternal(DataSet dataset, DataTable[] datatables, Int32 startRecord, Int32 maxRecords, String srcTable, IDbCommand command, CommandBehavior behavior)
   at System.Data.Common.DbDataAdapter.Fill(DataTable[] dataTables, Int32 startRecord, Int32 maxRecords, IDbCommand command, CommandBehavior behavior)
   at System.Data.Common.DbDataAdapter.Fill(DataTable dataTable)
   at Astaguru.Models.Utility.Display(String query) in F:\Ajay\project\Astaguru\AstaGuru18_3_2020_Home\AstaGuru18_3_2020_Home\astaguru_26_01_2020_current\astaguru\Astaguru\Models\Utility.cs:line 86




Time of Error: 24-03-2020 05:39 PM
URL: http://localhost:4933/AdminCms/Users/
Form: 
QueryString: 
Server Name: localhost
User Agent: Mozilla/5.0 (Windows NT 10.0; Win64; x64) AppleWebKit/537.36 (KHTML, like Gecko) Chrome/80.0.3987.149 Safari/537.36
User IP: ::1
User Host Name: ::1
Message: String must be exactly one character long.
Source: mscorlib
TargetSite: Char ToChar(System.String, System.IFormatProvider)
StackTrace:    at System.Convert.ToChar(String value, IFormatProvider provider)
   at System.Convert.ToChar(String value)
   at Astaguru.Controllers.AdminCmsController.GetUserList() in F:\Ajay\project\Astaguru\AstaGuru18_3_2020_Home\AstaGuru18_3_2020_Home\astaguru_26_01_2020_current\astaguru\Astaguru\Controllers\AdminCmsController.cs:line 1574




Time of Error: 24-03-2020 05:39 PM
URL: http://localhost:4933/AdminCms/Users/
Form: 
QueryString: 
Server Name: localhost
User Agent: Mozilla/5.0 (Windows NT 10.0; Win64; x64) AppleWebKit/537.36 (KHTML, like Gecko) Chrome/80.0.3987.149 Safari/537.36
User IP: ::1
User Host Name: ::1
Message: String must be exactly one character long.
Source: mscorlib
TargetSite: Char ToChar(System.String, System.IFormatProvider)
StackTrace:    at System.Convert.ToChar(String value, IFormatProvider provider)
   at System.Convert.ToChar(String value)
   at Astaguru.Controllers.AdminCmsController.GetUserList() in F:\Ajay\project\Astaguru\AstaGuru18_3_2020_Home\AstaGuru18_3_2020_Home\astaguru_26_01_2020_current\astaguru\Astaguru\Controllers\AdminCmsController.cs:line 1574




Time of Error: 24-03-2020 05:39 PM
URL: http://localhost:4933/AdminCms/Users/
Form: 
QueryString: 
Server Name: localhost
User Agent: Mozilla/5.0 (Windows NT 10.0; Win64; x64) AppleWebKit/537.36 (KHTML, like Gecko) Chrome/80.0.3987.149 Safari/537.36
User IP: ::1
User Host Name: ::1
Message: String must be exactly one character long.
Source: mscorlib
TargetSite: Char ToChar(System.String, System.IFormatProvider)
StackTrace:    at System.Convert.ToChar(String value, IFormatProvider provider)
   at System.Convert.ToChar(String value)
   at Astaguru.Controllers.AdminCmsController.GetUserList() in F:\Ajay\project\Astaguru\AstaGuru18_3_2020_Home\AstaGuru18_3_2020_Home\astaguru_26_01_2020_current\astaguru\Astaguru\Controllers\AdminCmsController.cs:line 1574




Time of Error: 24-03-2020 05:40 PM
URL: http://localhost:4933/AdminCms/Users/
Form: 
QueryString: 
Server Name: localhost
User Agent: Mozilla/5.0 (Windows NT 10.0; Win64; x64) AppleWebKit/537.36 (KHTML, like Gecko) Chrome/80.0.3987.149 Safari/537.36
User IP: ::1
User Host Name: ::1
Message: String must be exactly one character long.
Source: mscorlib
TargetSite: Char ToChar(System.String, System.IFormatProvider)
StackTrace:    at System.Convert.ToChar(String value, IFormatProvider provider)
   at System.Convert.ToChar(String value)
   at Astaguru.Controllers.AdminCmsController.GetUserList() in F:\Ajay\project\Astaguru\AstaGuru18_3_2020_Home\AstaGuru18_3_2020_Home\astaguru_26_01_2020_current\astaguru\Astaguru\Controllers\AdminCmsController.cs:line 1574




Time of Error: 24-03-2020 05:40 PM
URL: http://localhost:4933/AdminCms/Users/
Form: 
QueryString: 
Server Name: localhost
User Agent: Mozilla/5.0 (Windows NT 10.0; Win64; x64) AppleWebKit/537.36 (KHTML, like Gecko) Chrome/80.0.3987.149 Safari/537.36
User IP: ::1
User Host Name: ::1
Message: String must be exactly one character long.
Source: mscorlib
TargetSite: Char ToChar(System.String, System.IFormatProvider)
StackTrace:    at System.Convert.ToChar(String value, IFormatProvider provider)
   at System.Convert.ToChar(String value)
   at Astaguru.Controllers.AdminCmsController.GetUserList() in F:\Ajay\project\Astaguru\AstaGuru18_3_2020_Home\AstaGuru18_3_2020_Home\astaguru_26_01_2020_current\astaguru\Astaguru\Controllers\AdminCmsController.cs:line 1574




Time of Error: 24-03-2020 05:40 PM
URL: http://localhost:4933/AdminCms/Users/
Form: 
QueryString: 
Server Name: localhost
User Agent: Mozilla/5.0 (Windows NT 10.0; Win64; x64) AppleWebKit/537.36 (KHTML, like Gecko) Chrome/80.0.3987.149 Safari/537.36
User IP: ::1
User Host Name: ::1
Message: String must be exactly one character long.
Source: mscorlib
TargetSite: Char ToChar(System.String, System.IFormatProvider)
StackTrace:    at System.Convert.ToChar(String value, IFormatProvider provider)
   at System.Convert.ToChar(String value)
   at Astaguru.Controllers.AdminCmsController.GetUserList() in F:\Ajay\project\Astaguru\AstaGuru18_3_2020_Home\AstaGuru18_3_2020_Home\astaguru_26_01_2020_current\astaguru\Astaguru\Controllers\AdminCmsController.cs:line 1574




Time of Error: 24-03-2020 05:41 PM
URL: http://localhost:4933/AdminCms/Users/
Form: 
QueryString: 
Server Name: localhost
User Agent: Mozilla/5.0 (Windows NT 10.0; Win64; x64) AppleWebKit/537.36 (KHTML, like Gecko) Chrome/80.0.3987.149 Safari/537.36
User IP: ::1
User Host Name: ::1
Message: String must be exactly one character long.
Source: mscorlib
TargetSite: Char ToChar(System.String, System.IFormatProvider)
StackTrace:    at System.Convert.ToChar(String value, IFormatProvider provider)
   at System.Convert.ToChar(String value)
   at Astaguru.Controllers.AdminCmsController.GetUserList() in F:\Ajay\project\Astaguru\AstaGuru18_3_2020_Home\AstaGuru18_3_2020_Home\astaguru_26_01_2020_current\astaguru\Astaguru\Controllers\AdminCmsController.cs:line 1574




Time of Error: 24-03-2020 05:41 PM
URL: http://localhost:4933/AdminCms/Users/
Form: 
QueryString: 
Server Name: localhost
User Agent: Mozilla/5.0 (Windows NT 10.0; Win64; x64) AppleWebKit/537.36 (KHTML, like Gecko) Chrome/80.0.3987.149 Safari/537.36
User IP: ::1
User Host Name: ::1
Message: String must be exactly one character long.
Source: mscorlib
TargetSite: Char ToChar(System.String, System.IFormatProvider)
StackTrace:    at System.Convert.ToChar(String value, IFormatProvider provider)
   at System.Convert.ToChar(String value)
   at Astaguru.Controllers.AdminCmsController.GetUserList() in F:\Ajay\project\Astaguru\AstaGuru18_3_2020_Home\AstaGuru18_3_2020_Home\astaguru_26_01_2020_current\astaguru\Astaguru\Controllers\AdminCmsController.cs:line 1574




Time of Error: 24-03-2020 05:49 PM
URL: http://localhost:4933/AdminCms/Users/
Form: 
QueryString: 
Server Name: localhost
User Agent: Mozilla/5.0 (Windows NT 10.0; Win64; x64) AppleWebKit/537.36 (KHTML, like Gecko) Chrome/80.0.3987.149 Safari/537.36
User IP: ::1
User Host Name: ::1
Message: String cannot be of zero length.
Parameter name: oldValue
Source: mscorlib
TargetSite: System.String ReplaceInternal(System.String, System.String)
StackTrace:    at System.String.ReplaceInternal(String oldValue, String newValue)
   at System.String.Replace(String oldValue, String newValue)
   at Astaguru.Controllers.AdminCmsController.GetUserList()




