Time of Error: 21-04-2020 08:56 PM
URL: http://localhost:4933/AdminCms/CMSPage/1
Form: 
QueryString: 
Server Name: localhost
User Agent: Mozilla/5.0 (Windows NT 10.0; Win64; x64) AppleWebKit/537.36 (KHTML, like Gecko) Chrome/80.0.3987.163 Safari/537.36
User IP: ::1
User Host Name: ::1
Message: Cannot find table 1.
Source: System.Data
TargetSite: System.Data.DataTable get_Item(Int32)
StackTrace:    at System.Data.DataTableCollection.get_Item(Int32 index)
   at Astaguru.Controllers.AdminCmsController.GetCMSPageList(Nullable`1 Id) in F:\Ajay\project\Astaguru\AstaGuru18_3_2020_Home\AstaGuru18_3_2020_Home\astaguru_26_01_2020_current\astaguru\Astaguru\Controllers\AdminCmsController.cs:line 4746




