Time of Error: 18/03/2020 4:12 PM
URL: http://localhost:4933/AdminCms/AuctionList
Form: 
QueryString: 
Server Name: localhost
User Agent: Mozilla/5.0 (Windows NT 6.1; Win64; x64) AppleWebKit/537.36 (KHTML, like Gecko) Chrome/80.0.3987.132 Safari/537.36
User IP: 127.0.0.1
User Host Name: 127.0.0.1
Message: Input string was not in a correct format.
Source: mscorlib
TargetSite: Void StringToNumber(System.String, System.Globalization.NumberStyles, NumberBuffer ByRef, System.Globalization.NumberFormatInfo, Boolean)
StackTrace:    at System.Number.StringToNumber(String str, NumberStyles options, NumberBuffer& number, NumberFormatInfo info, Boolean parseDecimal)
   at System.Number.ParseInt32(String s, NumberStyles style, NumberFormatInfo info)
   at System.Int32.Parse(String s)
   at Astaguru.Controllers.AdminCmsController.getAuctionlist() in D:\rahul\All_Project_files\Astaguru\astaguru_DotNet\astaguru_26_01_2020_current\astaguru\Astaguru\Controllers\AdminCmsController.cs:line 780




Time of Error: 18/03/2020 4:12 PM
URL: http://localhost:4933/AdminCms/AuctionList
Form: 
QueryString: 
Server Name: localhost
User Agent: Mozilla/5.0 (Windows NT 6.1; Win64; x64) AppleWebKit/537.36 (KHTML, like Gecko) Chrome/80.0.3987.132 Safari/537.36
User IP: 127.0.0.1
User Host Name: 127.0.0.1
Message: Input string was not in a correct format.
Source: mscorlib
TargetSite: Void StringToNumber(System.String, System.Globalization.NumberStyles, NumberBuffer ByRef, System.Globalization.NumberFormatInfo, Boolean)
StackTrace:    at System.Number.StringToNumber(String str, NumberStyles options, NumberBuffer& number, NumberFormatInfo info, Boolean parseDecimal)
   at System.Number.ParseInt32(String s, NumberStyles style, NumberFormatInfo info)
   at System.Int32.Parse(String s)
   at Astaguru.Controllers.AdminCmsController.getAuctionlist() in D:\rahul\All_Project_files\Astaguru\astaguru_DotNet\astaguru_26_01_2020_current\astaguru\Astaguru\Controllers\AdminCmsController.cs:line 780




Time of Error: 18/03/2020 4:16 PM
URL: http://localhost:4933/AdminCms/AuctionList
Form: 
QueryString: 
Server Name: localhost
User Agent: Mozilla/5.0 (Windows NT 6.1; Win64; x64) AppleWebKit/537.36 (KHTML, like Gecko) Chrome/80.0.3987.132 Safari/537.36
User IP: ::1
User Host Name: ::1
Message: Input string was not in a correct format.
Source: mscorlib
TargetSite: Void StringToNumber(System.String, System.Globalization.NumberStyles, NumberBuffer ByRef, System.Globalization.NumberFormatInfo, Boolean)
StackTrace:    at System.Number.StringToNumber(String str, NumberStyles options, NumberBuffer& number, NumberFormatInfo info, Boolean parseDecimal)
   at System.Number.ParseInt32(String s, NumberStyles style, NumberFormatInfo info)
   at System.Int32.Parse(String s)
   at Astaguru.Controllers.AdminCmsController.getAuctionlist()




Time of Error: 18/03/2020 4:27 PM
URL: http://localhost:4933/AdminCms/AuctionList
Form: 
QueryString: 
Server Name: localhost
User Agent: Mozilla/5.0 (Windows NT 6.1; Win64; x64) AppleWebKit/537.36 (KHTML, like Gecko) Chrome/80.0.3987.132 Safari/537.36
User IP: ::1
User Host Name: ::1
Message: Input string was not in a correct format.
Source: mscorlib
TargetSite: Void StringToNumber(System.String, System.Globalization.NumberStyles, NumberBuffer ByRef, System.Globalization.NumberFormatInfo, Boolean)
StackTrace:    at System.Number.StringToNumber(String str, NumberStyles options, NumberBuffer& number, NumberFormatInfo info, Boolean parseDecimal)
   at System.Number.ParseInt32(String s, NumberStyles style, NumberFormatInfo info)
   at System.Int32.Parse(String s)
   at Astaguru.Controllers.AdminCmsController.getAuctionlist()




Time of Error: 18/03/2020 4:30 PM
URL: http://localhost:4933/AdminCms/AuctionList
Form: 
QueryString: 
Server Name: localhost
User Agent: Mozilla/5.0 (Windows NT 6.1; Win64; x64) AppleWebKit/537.36 (KHTML, like Gecko) Chrome/80.0.3987.132 Safari/537.36
User IP: 127.0.0.1
User Host Name: 127.0.0.1
Message: Input string was not in a correct format.
Source: mscorlib
TargetSite: Void StringToNumber(System.String, System.Globalization.NumberStyles, NumberBuffer ByRef, System.Globalization.NumberFormatInfo, Boolean)
StackTrace:    at System.Number.StringToNumber(String str, NumberStyles options, NumberBuffer& number, NumberFormatInfo info, Boolean parseDecimal)
   at System.Number.ParseDecimal(String value, NumberStyles options, NumberFormatInfo numfmt)
   at System.Convert.ToDecimal(String value)
   at Astaguru.Controllers.AdminCmsController.getAuctionlist()




Time of Error: 18/03/2020 4:32 PM
URL: http://localhost:4933/AdminCms/AuctionList/
Form: 
QueryString: 
Server Name: localhost
User Agent: Mozilla/5.0 (Windows NT 6.1; Win64; x64) AppleWebKit/537.36 (KHTML, like Gecko) Chrome/80.0.3987.132 Safari/537.36
User IP: ::1
User Host Name: ::1
Message: Input string was not in a correct format.
Source: mscorlib
TargetSite: Void StringToNumber(System.String, System.Globalization.NumberStyles, NumberBuffer ByRef, System.Globalization.NumberFormatInfo, Boolean)
StackTrace:    at System.Number.StringToNumber(String str, NumberStyles options, NumberBuffer& number, NumberFormatInfo info, Boolean parseDecimal)
   at System.Number.ParseDecimal(String value, NumberStyles options, NumberFormatInfo numfmt)
   at System.Convert.ToDecimal(String value)
   at Astaguru.Controllers.AdminCmsController.getAuctionlist()




Time of Error: 18/03/2020 4:33 PM
URL: http://localhost:4933/AdminCms/AuctionList/
Form: 
QueryString: 
Server Name: localhost
User Agent: Mozilla/5.0 (Windows NT 6.1; Win64; x64) AppleWebKit/537.36 (KHTML, like Gecko) Chrome/80.0.3987.132 Safari/537.36
User IP: ::1
User Host Name: ::1
Message: Input string was not in a correct format.
Source: mscorlib
TargetSite: Void StringToNumber(System.String, System.Globalization.NumberStyles, NumberBuffer ByRef, System.Globalization.NumberFormatInfo, Boolean)
StackTrace:    at System.Number.StringToNumber(String str, NumberStyles options, NumberBuffer& number, NumberFormatInfo info, Boolean parseDecimal)
   at System.Number.ParseDecimal(String value, NumberStyles options, NumberFormatInfo numfmt)
   at System.Convert.ToDecimal(String value)
   at Astaguru.Controllers.AdminCmsController.getAuctionlist()




Time of Error: 18/03/2020 4:33 PM
URL: http://localhost:4933/AdminCms/AuctionList/
Form: 
QueryString: 
Server Name: localhost
User Agent: Mozilla/5.0 (Windows NT 6.1; Win64; x64) AppleWebKit/537.36 (KHTML, like Gecko) Chrome/80.0.3987.132 Safari/537.36
User IP: ::1
User Host Name: ::1
Message: Input string was not in a correct format.
Source: mscorlib
TargetSite: Void StringToNumber(System.String, System.Globalization.NumberStyles, NumberBuffer ByRef, System.Globalization.NumberFormatInfo, Boolean)
StackTrace:    at System.Number.StringToNumber(String str, NumberStyles options, NumberBuffer& number, NumberFormatInfo info, Boolean parseDecimal)
   at System.Number.ParseDecimal(String value, NumberStyles options, NumberFormatInfo numfmt)
   at System.Convert.ToDecimal(String value)
   at Astaguru.Controllers.AdminCmsController.getAuctionlist()




Time of Error: 18/03/2020 4:33 PM
URL: http://localhost:4933/AdminCms/AuctionList/
Form: 
QueryString: 
Server Name: localhost
User Agent: Mozilla/5.0 (Windows NT 6.1; Win64; x64) AppleWebKit/537.36 (KHTML, like Gecko) Chrome/80.0.3987.132 Safari/537.36
User IP: ::1
User Host Name: ::1
Message: Input string was not in a correct format.
Source: mscorlib
TargetSite: Void StringToNumber(System.String, System.Globalization.NumberStyles, NumberBuffer ByRef, System.Globalization.NumberFormatInfo, Boolean)
StackTrace:    at System.Number.StringToNumber(String str, NumberStyles options, NumberBuffer& number, NumberFormatInfo info, Boolean parseDecimal)
   at System.Number.ParseDecimal(String value, NumberStyles options, NumberFormatInfo numfmt)
   at System.Convert.ToDecimal(String value)
   at Astaguru.Controllers.AdminCmsController.getAuctionlist()




Time of Error: 18/03/2020 4:35 PM
URL: http://localhost:4933/AdminCms/AuctionList/
Form: 
QueryString: 
Server Name: localhost
User Agent: Mozilla/5.0 (Windows NT 6.1; Win64; x64) AppleWebKit/537.36 (KHTML, like Gecko) Chrome/80.0.3987.132 Safari/537.36
User IP: ::1
User Host Name: ::1
Message: Input string was not in a correct format.
Source: mscorlib
TargetSite: Void StringToNumber(System.String, System.Globalization.NumberStyles, NumberBuffer ByRef, System.Globalization.NumberFormatInfo, Boolean)
StackTrace:    at System.Number.StringToNumber(String str, NumberStyles options, NumberBuffer& number, NumberFormatInfo info, Boolean parseDecimal)
   at System.Number.ParseDecimal(String value, NumberStyles options, NumberFormatInfo numfmt)
   at System.Convert.ToDecimal(String value)
   at Astaguru.Controllers.AdminCmsController.getAuctionlist()




Time of Error: 18/03/2020 4:36 PM
URL: http://localhost:4933/AdminCms/AuctionList/
Form: 
QueryString: 
Server Name: localhost
User Agent: Mozilla/5.0 (Windows NT 6.1; Win64; x64) AppleWebKit/537.36 (KHTML, like Gecko) Chrome/80.0.3987.132 Safari/537.36
User IP: ::1
User Host Name: ::1
Message: Input string was not in a correct format.
Source: mscorlib
TargetSite: Void StringToNumber(System.String, System.Globalization.NumberStyles, NumberBuffer ByRef, System.Globalization.NumberFormatInfo, Boolean)
StackTrace:    at System.Number.StringToNumber(String str, NumberStyles options, NumberBuffer& number, NumberFormatInfo info, Boolean parseDecimal)
   at System.Number.ParseDecimal(String value, NumberStyles options, NumberFormatInfo numfmt)
   at System.Convert.ToDecimal(String value)
   at Astaguru.Controllers.AdminCmsController.getAuctionlist()




Time of Error: 18/03/2020 4:37 PM
URL: http://localhost:4933/AdminCms/AuctionList/
Form: 
QueryString: 
Server Name: localhost
User Agent: Mozilla/5.0 (Windows NT 6.1; Win64; x64) AppleWebKit/537.36 (KHTML, like Gecko) Chrome/80.0.3987.132 Safari/537.36
User IP: 127.0.0.1
User Host Name: 127.0.0.1
Message: Input string was not in a correct format.
Source: mscorlib
TargetSite: Void StringToNumber(System.String, System.Globalization.NumberStyles, NumberBuffer ByRef, System.Globalization.NumberFormatInfo, Boolean)
StackTrace:    at System.Number.StringToNumber(String str, NumberStyles options, NumberBuffer& number, NumberFormatInfo info, Boolean parseDecimal)
   at System.Number.ParseDecimal(String value, NumberStyles options, NumberFormatInfo numfmt)
   at System.Convert.ToDecimal(String value)
   at Astaguru.Controllers.AdminCmsController.getAuctionlist()




Time of Error: 18/03/2020 4:37 PM
URL: http://localhost:4933/AdminCms/AuctionList/
Form: 
QueryString: 
Server Name: localhost
User Agent: Mozilla/5.0 (Windows NT 6.1; Win64; x64) AppleWebKit/537.36 (KHTML, like Gecko) Chrome/80.0.3987.132 Safari/537.36
User IP: ::1
User Host Name: ::1
Message: Input string was not in a correct format.
Source: mscorlib
TargetSite: Void StringToNumber(System.String, System.Globalization.NumberStyles, NumberBuffer ByRef, System.Globalization.NumberFormatInfo, Boolean)
StackTrace:    at System.Number.StringToNumber(String str, NumberStyles options, NumberBuffer& number, NumberFormatInfo info, Boolean parseDecimal)
   at System.Number.ParseDecimal(String value, NumberStyles options, NumberFormatInfo numfmt)
   at System.Convert.ToDecimal(String value)
   at Astaguru.Controllers.AdminCmsController.getAuctionlist()




Time of Error: 18/03/2020 4:38 PM
URL: http://localhost:4933/AdminCms/AuctionList/
Form: 
QueryString: 
Server Name: localhost
User Agent: Mozilla/5.0 (Windows NT 6.1; Win64; x64) AppleWebKit/537.36 (KHTML, like Gecko) Chrome/80.0.3987.132 Safari/537.36
User IP: 127.0.0.1
User Host Name: 127.0.0.1
Message: Input string was not in a correct format.
Source: mscorlib
TargetSite: Void StringToNumber(System.String, System.Globalization.NumberStyles, NumberBuffer ByRef, System.Globalization.NumberFormatInfo, Boolean)
StackTrace:    at System.Number.StringToNumber(String str, NumberStyles options, NumberBuffer& number, NumberFormatInfo info, Boolean parseDecimal)
   at System.Number.ParseDecimal(String value, NumberStyles options, NumberFormatInfo numfmt)
   at System.Convert.ToDecimal(String value)
   at Astaguru.Controllers.AdminCmsController.getAuctionlist()




Time of Error: 18/03/2020 4:39 PM
URL: http://localhost:4933/AdminCms/AuctionList/
Form: 
QueryString: 
Server Name: localhost
User Agent: Mozilla/5.0 (Windows NT 6.1; Win64; x64) AppleWebKit/537.36 (KHTML, like Gecko) Chrome/80.0.3987.132 Safari/537.36
User IP: ::1
User Host Name: ::1
Message: Input string was not in a correct format.
Source: mscorlib
TargetSite: Void StringToNumber(System.String, System.Globalization.NumberStyles, NumberBuffer ByRef, System.Globalization.NumberFormatInfo, Boolean)
StackTrace:    at System.Number.StringToNumber(String str, NumberStyles options, NumberBuffer& number, NumberFormatInfo info, Boolean parseDecimal)
   at System.Number.ParseDecimal(String value, NumberStyles options, NumberFormatInfo numfmt)
   at System.Convert.ToDecimal(String value)
   at Astaguru.Controllers.AdminCmsController.getAuctionlist()




Time of Error: 18/03/2020 4:39 PM
URL: http://localhost:4933/AdminCms/AuctionList/
Form: 
QueryString: 
Server Name: localhost
User Agent: Mozilla/5.0 (Windows NT 6.1; Win64; x64) AppleWebKit/537.36 (KHTML, like Gecko) Chrome/80.0.3987.132 Safari/537.36
User IP: ::1
User Host Name: ::1
Message: Input string was not in a correct format.
Source: mscorlib
TargetSite: Void StringToNumber(System.String, System.Globalization.NumberStyles, NumberBuffer ByRef, System.Globalization.NumberFormatInfo, Boolean)
StackTrace:    at System.Number.StringToNumber(String str, NumberStyles options, NumberBuffer& number, NumberFormatInfo info, Boolean parseDecimal)
   at System.Number.ParseDecimal(String value, NumberStyles options, NumberFormatInfo numfmt)
   at System.Convert.ToDecimal(String value)
   at Astaguru.Controllers.AdminCmsController.getAuctionlist()




Time of Error: 18/03/2020 4:39 PM
URL: http://localhost:4933/AdminCms/AuctionList/
Form: 
QueryString: 
Server Name: localhost
User Agent: Mozilla/5.0 (Windows NT 6.1; Win64; x64) AppleWebKit/537.36 (KHTML, like Gecko) Chrome/80.0.3987.132 Safari/537.36
User IP: ::1
User Host Name: ::1
Message: Input string was not in a correct format.
Source: mscorlib
TargetSite: Void StringToNumber(System.String, System.Globalization.NumberStyles, NumberBuffer ByRef, System.Globalization.NumberFormatInfo, Boolean)
StackTrace:    at System.Number.StringToNumber(String str, NumberStyles options, NumberBuffer& number, NumberFormatInfo info, Boolean parseDecimal)
   at System.Number.ParseDecimal(String value, NumberStyles options, NumberFormatInfo numfmt)
   at System.Convert.ToDecimal(String value)
   at Astaguru.Controllers.AdminCmsController.getAuctionlist()




Time of Error: 18/03/2020 4:45 PM
URL: http://localhost:4933/AdminCms/AuctionList/
Form: 
QueryString: 
Server Name: localhost
User Agent: Mozilla/5.0 (Windows NT 6.1; Win64; x64) AppleWebKit/537.36 (KHTML, like Gecko) Chrome/80.0.3987.132 Safari/537.36
User IP: ::1
User Host Name: ::1
Message: Input string was not in a correct format.
Source: mscorlib
TargetSite: Void StringToNumber(System.String, System.Globalization.NumberStyles, NumberBuffer ByRef, System.Globalization.NumberFormatInfo, Boolean)
StackTrace:    at System.Number.StringToNumber(String str, NumberStyles options, NumberBuffer& number, NumberFormatInfo info, Boolean parseDecimal)
   at System.Number.ParseDecimal(String value, NumberStyles options, NumberFormatInfo numfmt)
   at System.Convert.ToDecimal(String value)
   at Astaguru.Controllers.AdminCmsController.getAuctionlist()




Time of Error: 18/03/2020 4:45 PM
URL: http://localhost:4933/AdminCms/AuctionList/
Form: 
QueryString: 
Server Name: localhost
User Agent: Mozilla/5.0 (Windows NT 6.1; Win64; x64) AppleWebKit/537.36 (KHTML, like Gecko) Chrome/80.0.3987.132 Safari/537.36
User IP: ::1
User Host Name: ::1
Message: Input string was not in a correct format.
Source: mscorlib
TargetSite: Void StringToNumber(System.String, System.Globalization.NumberStyles, NumberBuffer ByRef, System.Globalization.NumberFormatInfo, Boolean)
StackTrace:    at System.Number.StringToNumber(String str, NumberStyles options, NumberBuffer& number, NumberFormatInfo info, Boolean parseDecimal)
   at System.Number.ParseDecimal(String value, NumberStyles options, NumberFormatInfo numfmt)
   at System.Convert.ToDecimal(String value)
   at Astaguru.Controllers.AdminCmsController.getAuctionlist()




Time of Error: 18/03/2020 4:45 PM
URL: http://localhost:4933/AdminCms/AuctionList/
Form: 
QueryString: 
Server Name: localhost
User Agent: Mozilla/5.0 (Windows NT 6.1; Win64; x64) AppleWebKit/537.36 (KHTML, like Gecko) Chrome/80.0.3987.132 Safari/537.36
User IP: ::1
User Host Name: ::1
Message: Input string was not in a correct format.
Source: mscorlib
TargetSite: Void StringToNumber(System.String, System.Globalization.NumberStyles, NumberBuffer ByRef, System.Globalization.NumberFormatInfo, Boolean)
StackTrace:    at System.Number.StringToNumber(String str, NumberStyles options, NumberBuffer& number, NumberFormatInfo info, Boolean parseDecimal)
   at System.Number.ParseDecimal(String value, NumberStyles options, NumberFormatInfo numfmt)
   at System.Convert.ToDecimal(String value)
   at Astaguru.Controllers.AdminCmsController.getAuctionlist()




Time of Error: 18/03/2020 4:45 PM
URL: http://localhost:4933/AdminCms/AuctionList/
Form: 
QueryString: 
Server Name: localhost
User Agent: Mozilla/5.0 (Windows NT 6.1; Win64; x64) AppleWebKit/537.36 (KHTML, like Gecko) Chrome/80.0.3987.132 Safari/537.36
User IP: ::1
User Host Name: ::1
Message: Input string was not in a correct format.
Source: mscorlib
TargetSite: Void StringToNumber(System.String, System.Globalization.NumberStyles, NumberBuffer ByRef, System.Globalization.NumberFormatInfo, Boolean)
StackTrace:    at System.Number.StringToNumber(String str, NumberStyles options, NumberBuffer& number, NumberFormatInfo info, Boolean parseDecimal)
   at System.Number.ParseDecimal(String value, NumberStyles options, NumberFormatInfo numfmt)
   at System.Convert.ToDecimal(String value)
   at Astaguru.Controllers.AdminCmsController.getAuctionlist()




Time of Error: 18/03/2020 4:56 PM
URL: http://localhost:4933/AdminCms/AuctionList/
Form: 
QueryString: 
Server Name: localhost
User Agent: Mozilla/5.0 (Windows NT 6.1; Win64; x64) AppleWebKit/537.36 (KHTML, like Gecko) Chrome/80.0.3987.132 Safari/537.36
User IP: ::1
User Host Name: ::1
Message: Input string was not in a correct format.
Source: mscorlib
TargetSite: Void StringToNumber(System.String, System.Globalization.NumberStyles, NumberBuffer ByRef, System.Globalization.NumberFormatInfo, Boolean)
StackTrace:    at System.Number.StringToNumber(String str, NumberStyles options, NumberBuffer& number, NumberFormatInfo info, Boolean parseDecimal)
   at System.Number.ParseDecimal(String value, NumberStyles options, NumberFormatInfo numfmt)
   at System.Convert.ToDecimal(String value)
   at Astaguru.Controllers.AdminCmsController.getAuctionlist()




Time of Error: 18/03/2020 4:57 PM
URL: http://localhost:4933/AdminCms/AuctionList/
Form: 
QueryString: 
Server Name: localhost
User Agent: Mozilla/5.0 (Windows NT 6.1; Win64; x64) AppleWebKit/537.36 (KHTML, like Gecko) Chrome/80.0.3987.132 Safari/537.36
User IP: ::1
User Host Name: ::1
Message: Input string was not in a correct format.
Source: mscorlib
TargetSite: Void StringToNumber(System.String, System.Globalization.NumberStyles, NumberBuffer ByRef, System.Globalization.NumberFormatInfo, Boolean)
StackTrace:    at System.Number.StringToNumber(String str, NumberStyles options, NumberBuffer& number, NumberFormatInfo info, Boolean parseDecimal)
   at System.Number.ParseDecimal(String value, NumberStyles options, NumberFormatInfo numfmt)
   at System.Convert.ToDecimal(String value)
   at Astaguru.Controllers.AdminCmsController.getAuctionlist()




Time of Error: 18/03/2020 4:57 PM
URL: http://localhost:4933/AdminCms/AuctionList/
Form: 
QueryString: 
Server Name: localhost
User Agent: Mozilla/5.0 (Windows NT 6.1; Win64; x64) AppleWebKit/537.36 (KHTML, like Gecko) Chrome/80.0.3987.132 Safari/537.36
User IP: ::1
User Host Name: ::1
Message: Input string was not in a correct format.
Source: mscorlib
TargetSite: Void StringToNumber(System.String, System.Globalization.NumberStyles, NumberBuffer ByRef, System.Globalization.NumberFormatInfo, Boolean)
StackTrace:    at System.Number.StringToNumber(String str, NumberStyles options, NumberBuffer& number, NumberFormatInfo info, Boolean parseDecimal)
   at System.Number.ParseDecimal(String value, NumberStyles options, NumberFormatInfo numfmt)
   at System.Convert.ToDecimal(String value)
   at Astaguru.Controllers.AdminCmsController.getAuctionlist()




Time of Error: 18/03/2020 6:41 PM
URL: http://localhost:4933/AdminCms/AuctionList/
Form: 
QueryString: 
Server Name: localhost
User Agent: Mozilla/5.0 (Windows NT 6.1; Win64; x64) AppleWebKit/537.36 (KHTML, like Gecko) Chrome/80.0.3987.132 Safari/537.36
User IP: ::1
User Host Name: ::1
Message: Input string was not in a correct format.
Source: mscorlib
TargetSite: Void StringToNumber(System.String, System.Globalization.NumberStyles, NumberBuffer ByRef, System.Globalization.NumberFormatInfo, Boolean)
StackTrace:    at System.Number.StringToNumber(String str, NumberStyles options, NumberBuffer& number, NumberFormatInfo info, Boolean parseDecimal)
   at System.Number.ParseDecimal(String value, NumberStyles options, NumberFormatInfo numfmt)
   at System.Convert.ToDecimal(String value)
   at Astaguru.Controllers.AdminCmsController.getAuctionlist()




Time of Error: 18/03/2020 6:53 PM
URL: http://localhost:4933/AdminCms/AuctionList
Form: 
QueryString: 
Server Name: localhost
User Agent: Mozilla/5.0 (Windows NT 6.1; Win64; x64) AppleWebKit/537.36 (KHTML, like Gecko) Chrome/80.0.3987.132 Safari/537.36
User IP: ::1
User Host Name: ::1
Message: Input string was not in a correct format.
Source: mscorlib
TargetSite: Void StringToNumber(System.String, System.Globalization.NumberStyles, NumberBuffer ByRef, System.Globalization.NumberFormatInfo, Boolean)
StackTrace:    at System.Number.StringToNumber(String str, NumberStyles options, NumberBuffer& number, NumberFormatInfo info, Boolean parseDecimal)
   at System.Number.ParseDecimal(String value, NumberStyles options, NumberFormatInfo numfmt)
   at System.Convert.ToDecimal(String value)
   at Astaguru.Controllers.AdminCmsController.getAuctionlist() in D:\rahul\All_Project_files\Astaguru\astaguru_DotNet\astaguru_26_01_2020_current\astaguru\Astaguru\Controllers\AdminCmsController.cs:line 780




Time of Error: 18/03/2020 6:59 PM
URL: http://localhost:4933/AdminCms/AuctionList
Form: 
QueryString: 
Server Name: localhost
User Agent: Mozilla/5.0 (Windows NT 6.1; Win64; x64) AppleWebKit/537.36 (KHTML, like Gecko) Chrome/80.0.3987.132 Safari/537.36
User IP: ::1
User Host Name: ::1
Message: Input string was not in a correct format.
Source: mscorlib
TargetSite: Void StringToNumber(System.String, System.Globalization.NumberStyles, NumberBuffer ByRef, System.Globalization.NumberFormatInfo, Boolean)
StackTrace:    at System.Number.StringToNumber(String str, NumberStyles options, NumberBuffer& number, NumberFormatInfo info, Boolean parseDecimal)
   at System.Number.ParseDecimal(String value, NumberStyles options, NumberFormatInfo numfmt)
   at System.Convert.ToDecimal(String value)
   at Astaguru.Controllers.AdminCmsController.getAuctionlist() in D:\rahul\All_Project_files\Astaguru\astaguru_DotNet\astaguru_26_01_2020_current\astaguru\Astaguru\Controllers\AdminCmsController.cs:line 780




Time of Error: 18/03/2020 7:04 PM
URL: http://localhost:4933/AdminCms/AuctionList
Form: 
QueryString: 
Server Name: localhost
User Agent: Mozilla/5.0 (Windows NT 6.1; Win64; x64) AppleWebKit/537.36 (KHTML, like Gecko) Chrome/80.0.3987.132 Safari/537.36
User IP: ::1
User Host Name: ::1
Message: Input string was not in a correct format.
Source: mscorlib
TargetSite: Void StringToNumber(System.String, System.Globalization.NumberStyles, NumberBuffer ByRef, System.Globalization.NumberFormatInfo, Boolean)
StackTrace:    at System.Number.StringToNumber(String str, NumberStyles options, NumberBuffer& number, NumberFormatInfo info, Boolean parseDecimal)
   at System.Number.ParseDecimal(String value, NumberStyles options, NumberFormatInfo numfmt)
   at System.Convert.ToDecimal(String value)
   at Astaguru.Controllers.AdminCmsController.getAuctionlist()




Time of Error: 18/03/2020 7:04 PM
URL: http://localhost:4933/AdminCms/AuctionList
Form: 
QueryString: 
Server Name: localhost
User Agent: Mozilla/5.0 (Windows NT 6.1; Win64; x64) AppleWebKit/537.36 (KHTML, like Gecko) Chrome/80.0.3987.132 Safari/537.36
User IP: ::1
User Host Name: ::1
Message: Input string was not in a correct format.
Source: mscorlib
TargetSite: Void StringToNumber(System.String, System.Globalization.NumberStyles, NumberBuffer ByRef, System.Globalization.NumberFormatInfo, Boolean)
StackTrace:    at System.Number.StringToNumber(String str, NumberStyles options, NumberBuffer& number, NumberFormatInfo info, Boolean parseDecimal)
   at System.Number.ParseDecimal(String value, NumberStyles options, NumberFormatInfo numfmt)
   at System.Convert.ToDecimal(String value)
   at Astaguru.Controllers.AdminCmsController.getAuctionlist()




Time of Error: 18/03/2020 7:09 PM
URL: http://localhost:4933/AdminCms/Category
Form: category=&btnAction=Submit
QueryString: 
Server Name: localhost
User Agent: Mozilla/5.0 (Windows NT 6.1; Win64; x64) AppleWebKit/537.36 (KHTML, like Gecko) Chrome/80.0.3987.132 Safari/537.36
User IP: ::1
User Host Name: ::1
Message: Procedure or function 'spAddCategory' expects parameter '@pinCategory', which was not supplied.
Source: .Net SqlClient Data Provider
TargetSite: Void OnError(System.Data.SqlClient.SqlException, Boolean, System.Action`1[System.Action])
StackTrace:    at System.Data.SqlClient.SqlConnection.OnError(SqlException exception, Boolean breakConnection, Action`1 wrapCloseInAction)
   at System.Data.SqlClient.SqlInternalConnection.OnError(SqlException exception, Boolean breakConnection, Action`1 wrapCloseInAction)
   at System.Data.SqlClient.TdsParser.ThrowExceptionAndWarning(TdsParserStateObject stateObj, Boolean callerHasConnectionLock, Boolean asyncClose)
   at System.Data.SqlClient.TdsParser.TryRun(RunBehavior runBehavior, SqlCommand cmdHandler, SqlDataReader dataStream, BulkCopySimpleResultSet bulkCopyHandler, TdsParserStateObject stateObj, Boolean& dataReady)
   at System.Data.SqlClient.SqlCommand.FinishExecuteReader(SqlDataReader ds, RunBehavior runBehavior, String resetOptionsString)
   at System.Data.SqlClient.SqlCommand.RunExecuteReaderTds(CommandBehavior cmdBehavior, RunBehavior runBehavior, Boolean returnStream, Boolean async, Int32 timeout, Task& task, Boolean asyncWrite, SqlDataReader ds, Boolean describeParameterEncryptionRequest)
   at System.Data.SqlClient.SqlCommand.RunExecuteReader(CommandBehavior cmdBehavior, RunBehavior runBehavior, Boolean returnStream, String method, TaskCompletionSource`1 completion, Int32 timeout, Task& task, Boolean asyncWrite)
   at System.Data.SqlClient.SqlCommand.InternalExecuteNonQuery(TaskCompletionSource`1 completion, String methodName, Boolean sendToPipe, Int32 timeout, Boolean asyncWrite)
   at System.Data.SqlClient.SqlCommand.ExecuteNonQuery()
   at Astaguru.Models.Utility.Execute(SqlCommand cmd)




Time of Error: 18/03/2020 7:09 PM
URL: http://localhost:4933/AdminCms/Category
Form: category=&btnAction=Submit
QueryString: 
Server Name: localhost
User Agent: Mozilla/5.0 (Windows NT 6.1; Win64; x64) AppleWebKit/537.36 (KHTML, like Gecko) Chrome/80.0.3987.132 Safari/537.36
User IP: 127.0.0.1
User Host Name: 127.0.0.1
Message: Procedure or function 'spAddCategory' expects parameter '@pinCategory', which was not supplied.
Source: .Net SqlClient Data Provider
TargetSite: Void OnError(System.Data.SqlClient.SqlException, Boolean, System.Action`1[System.Action])
StackTrace:    at System.Data.SqlClient.SqlConnection.OnError(SqlException exception, Boolean breakConnection, Action`1 wrapCloseInAction)
   at System.Data.SqlClient.SqlInternalConnection.OnError(SqlException exception, Boolean breakConnection, Action`1 wrapCloseInAction)
   at System.Data.SqlClient.TdsParser.ThrowExceptionAndWarning(TdsParserStateObject stateObj, Boolean callerHasConnectionLock, Boolean asyncClose)
   at System.Data.SqlClient.TdsParser.TryRun(RunBehavior runBehavior, SqlCommand cmdHandler, SqlDataReader dataStream, BulkCopySimpleResultSet bulkCopyHandler, TdsParserStateObject stateObj, Boolean& dataReady)
   at System.Data.SqlClient.SqlCommand.FinishExecuteReader(SqlDataReader ds, RunBehavior runBehavior, String resetOptionsString)
   at System.Data.SqlClient.SqlCommand.RunExecuteReaderTds(CommandBehavior cmdBehavior, RunBehavior runBehavior, Boolean returnStream, Boolean async, Int32 timeout, Task& task, Boolean asyncWrite, SqlDataReader ds, Boolean describeParameterEncryptionRequest)
   at System.Data.SqlClient.SqlCommand.RunExecuteReader(CommandBehavior cmdBehavior, RunBehavior runBehavior, Boolean returnStream, String method, TaskCompletionSource`1 completion, Int32 timeout, Task& task, Boolean asyncWrite)
   at System.Data.SqlClient.SqlCommand.InternalExecuteNonQuery(TaskCompletionSource`1 completion, String methodName, Boolean sendToPipe, Int32 timeout, Boolean asyncWrite)
   at System.Data.SqlClient.SqlCommand.ExecuteNonQuery()
   at Astaguru.Models.Utility.Execute(SqlCommand cmd)




Time of Error: 18/03/2020 7:10 PM
URL: http://localhost:4933/AdminCms/Category
Form: category=&btnAction=Submit
QueryString: 
Server Name: localhost
User Agent: Mozilla/5.0 (Windows NT 6.1; Win64; x64) AppleWebKit/537.36 (KHTML, like Gecko) Chrome/80.0.3987.132 Safari/537.36
User IP: 127.0.0.1
User Host Name: 127.0.0.1
Message: Procedure or function 'spAddCategory' expects parameter '@pinCategory', which was not supplied.
Source: .Net SqlClient Data Provider
TargetSite: Void OnError(System.Data.SqlClient.SqlException, Boolean, System.Action`1[System.Action])
StackTrace:    at System.Data.SqlClient.SqlConnection.OnError(SqlException exception, Boolean breakConnection, Action`1 wrapCloseInAction)
   at System.Data.SqlClient.SqlInternalConnection.OnError(SqlException exception, Boolean breakConnection, Action`1 wrapCloseInAction)
   at System.Data.SqlClient.TdsParser.ThrowExceptionAndWarning(TdsParserStateObject stateObj, Boolean callerHasConnectionLock, Boolean asyncClose)
   at System.Data.SqlClient.TdsParser.TryRun(RunBehavior runBehavior, SqlCommand cmdHandler, SqlDataReader dataStream, BulkCopySimpleResultSet bulkCopyHandler, TdsParserStateObject stateObj, Boolean& dataReady)
   at System.Data.SqlClient.SqlCommand.FinishExecuteReader(SqlDataReader ds, RunBehavior runBehavior, String resetOptionsString)
   at System.Data.SqlClient.SqlCommand.RunExecuteReaderTds(CommandBehavior cmdBehavior, RunBehavior runBehavior, Boolean returnStream, Boolean async, Int32 timeout, Task& task, Boolean asyncWrite, SqlDataReader ds, Boolean describeParameterEncryptionRequest)
   at System.Data.SqlClient.SqlCommand.RunExecuteReader(CommandBehavior cmdBehavior, RunBehavior runBehavior, Boolean returnStream, String method, TaskCompletionSource`1 completion, Int32 timeout, Task& task, Boolean asyncWrite)
   at System.Data.SqlClient.SqlCommand.InternalExecuteNonQuery(TaskCompletionSource`1 completion, String methodName, Boolean sendToPipe, Int32 timeout, Boolean asyncWrite)
   at System.Data.SqlClient.SqlCommand.ExecuteNonQuery()
   at Astaguru.Models.Utility.Execute(SqlCommand cmd)




