Time of Error: 03-04-2020 01:13 PM
URL: http://localhost:4933/AdminCms/GetProxyBidPaintings/
Form: 
QueryString: 
Server Name: localhost
User Agent: Mozilla/5.0 (Windows NT 10.0; Win64; x64) AppleWebKit/537.36 (KHTML, like Gecko) Chrome/80.0.3987.149 Safari/537.36
User IP: 127.0.0.1
User Host Name: 127.0.0.1
Message: Input string was not in a correct format.
Source: mscorlib
TargetSite: Void StringToNumber(System.String, System.Globalization.NumberStyles, NumberBuffer ByRef, System.Globalization.NumberFormatInfo, Boolean)
StackTrace:    at System.Number.StringToNumber(String str, NumberStyles options, NumberBuffer& number, NumberFormatInfo info, Boolean parseDecimal)
   at System.Number.ParseInt32(String s, NumberStyles style, NumberFormatInfo info)
   at System.Int32.Parse(String s)
   at Astaguru.Controllers.AdminCmsController.GetProxyBidPaintingList()




Time of Error: 03-04-2020 07:45 PM
URL: http://localhost:4933/AdminCms/SendEmailWithPerformaInvoice
Form: 
QueryString: 
Server Name: localhost
User Agent: Mozilla/5.0 (Windows NT 10.0; Win64; x64) AppleWebKit/537.36 (KHTML, like Gecko) Chrome/80.0.3987.149 Safari/537.36
User IP: ::1
User Host Name: ::1
Message: Value cannot be null.
Parameter name: stream
Source: System
TargetSite: Void SetContent(System.IO.Stream, System.String, System.String)
StackTrace:    at System.Net.Mime.MimePart.SetContent(Stream stream, String name, String mimeType)
   at System.Net.Mail.Attachment..ctor(Stream contentStream, String name)
   at Astaguru.Models.Utility.SendEmailwinner(String Emailbody, String[] Toemailids, String Subject, String FilePath, Stream input) in F:\Ajay\project\Astaguru\AstaGuru18_3_2020_Home\AstaGuru18_3_2020_Home\astaguru_26_01_2020_current\astaguru\Astaguru\Models\Utility.cs:line 403




