Time of Error: 07-04-2020 01:44 PM
URL: http://localhost:4933/AdminCms/Notification
Form: userid=13&userid=0&subject=test2&description=abc&btnAction=Submit
QueryString: 
Server Name: localhost
User Agent: Mozilla/5.0 (Windows NT 10.0; Win64; x64) AppleWebKit/537.36 (KHTML, like Gecko) Chrome/80.0.3987.149 Safari/537.36
User IP: ::1
User Host Name: ::1
Message: ExecuteNonQuery: CommandText property has not been initialized
Source: System.Data
TargetSite: Void ValidateCommand(System.String, Boolean)
StackTrace:    at System.Data.SqlClient.SqlCommand.ValidateCommand(String method, Boolean async)
   at System.Data.SqlClient.SqlCommand.InternalExecuteNonQuery(TaskCompletionSource`1 completion, String methodName, Boolean sendToPipe, Int32 timeout, Boolean asyncWrite)
   at System.Data.SqlClient.SqlCommand.ExecuteNonQuery()
   at Astaguru.Models.Utility.Execute(SqlCommand cmd) in F:\Ajay\project\Astaguru\AstaGuru18_3_2020_Home\AstaGuru18_3_2020_Home\astaguru_26_01_2020_current\astaguru\Astaguru\Models\Utility.cs:line 30




