Time of Error: 15-04-2020 04:36 PM
URL: http://localhost:4933/AdminCms/StartAuctionnew
Form: 
QueryString: 
Server Name: localhost
User Agent: Mozilla/5.0 (Windows NT 10.0; Win64; x64) AppleWebKit/537.36 (KHTML, like Gecko) Chrome/80.0.3987.163 Safari/537.36
User IP: ::1
User Host Name: ::1
Message: The parameter 'addresses' cannot be an empty string.
Parameter name: addresses
Source: System
TargetSite: Void Add(System.String)
StackTrace:    at System.Net.Mail.MailAddressCollection.Add(String addresses)
   at Astaguru.Models.Utility.SendEmailwinner(String Emailbody, String[] Toemailids, String Subject, String FilePath, Stream input)




Time of Error: 15-04-2020 04:38 PM
URL: http://localhost:4933/AdminCms/StartAuctionnew
Form: 
QueryString: 
Server Name: localhost
User Agent: Mozilla/5.0 (Windows NT 10.0; Win64; x64) AppleWebKit/537.36 (KHTML, like Gecko) Chrome/80.0.3987.163 Safari/537.36
User IP: ::1
User Host Name: ::1
Message: The parameter 'addresses' cannot be an empty string.
Parameter name: addresses
Source: System
TargetSite: Void Add(System.String)
StackTrace:    at System.Net.Mail.MailAddressCollection.Add(String addresses)
   at Astaguru.Models.Utility.SendEmailwinner(String Emailbody, String[] Toemailids, String Subject, String FilePath, Stream input)




