<?xml version="1.0" encoding="utf-8"?>
<!-- Generator: Adobe Illustrator 19.0.0, SVG Export Plug-In . SVG Version: 6.00 Build 0)  -->
<svg version="1.1" id="Layer_1" xmlns="http://www.w3.org/2000/svg" xmlns:xlink="http://www.w3.org/1999/xlink" x="0px" y="0px"
	 viewBox="0 0 788.177 225.166" enable-background="new 0 0 788.177 225.166" xml:space="preserve">
<g>
	<defs>
		<rect id="SVGID_1_" width="788.177" height="225.166"/>
	</defs>
	<clipPath id="SVGID_2_">
		<use xlink:href="#SVGID_1_"  overflow="visible"/>
	</clipPath>
	<path clip-path="url(#SVGID_2_)" fill="#1C1A15" d="M788.177,202.762c0,12.535-10.072,22.404-22.629,22.404H22.092
		C9.536,225.166,0,215.592,0,203.055V22.076C0,9.537,9.536,0,22.092,0h743.456c12.557,0,22.522,9.537,22.522,22.076v180.979
		L788.177,202.762z"/>
</g>
<g>
	<defs>
		<path id="SVGID_3_" d="M86.603,48.905v69.71v71.124c0,1.688,0.744,2.835,1.906,3.226l74.981-74.348L89.135,44.889
			C87.638,45.307,86.603,46.66,86.603,48.905"/>
	</defs>
	<clipPath id="SVGID_4_">
		<use xlink:href="#SVGID_3_"  overflow="visible"/>
	</clipPath>
	
		<linearGradient id="SVGID_5_" gradientUnits="userSpaceOnUse" x1="0" y1="225.166" x2="1" y2="225.166" gradientTransform="matrix(0 152.4682 -152.4682 0 34455.6914 42.5065)">
		<stop  offset="0" style="stop-color:#2179B0"/>
		<stop  offset="0.3101" style="stop-color:#4D96B9"/>
		<stop  offset="0.7738" style="stop-color:#83BFBE"/>
		<stop  offset="1" style="stop-color:#96CFBF"/>
	</linearGradient>
	<rect x="86.603" y="44.889" clip-path="url(#SVGID_4_)" fill="url(#SVGID_5_)" width="76.887" height="148.076"/>
</g>
<g>
	<defs>
		<path id="SVGID_6_" d="M90.191,44.749c-0.371,0-0.724,0.048-1.056,0.14l74.355,73.728l20.653-20.478l-31.039-17.92
			c0,0-0.055-0.031-0.159-0.092l-0.007-0.004c-0.025-0.014-0.052-0.03-0.083-0.047l-0.007-0.005
			c-0.023-0.014-0.046-0.026-0.071-0.041l-0.011-0.007c-0.005-0.003-0.009-0.004-0.014-0.007l-0.019-0.011
			c-0.004-0.003-0.009-0.005-0.015-0.008l-0.019-0.012c-0.001-0.001-0.002-0.002-0.004-0.003l-0.021-0.011
			c-0.007-0.004-0.013-0.007-0.02-0.011L93.058,45.551c-0.986-0.537-1.968-0.802-2.856-0.802
			C90.198,44.749,90.194,44.749,90.191,44.749"/>
	</defs>
	<clipPath id="SVGID_7_">
		<use xlink:href="#SVGID_6_"  overflow="visible"/>
	</clipPath>
	
		<linearGradient id="SVGID_8_" gradientUnits="userSpaceOnUse" x1="0" y1="225.166" x2="1" y2="225.166" gradientTransform="matrix(97.5323 0 0 97.5323 86.6107 -21879.2656)">
		<stop  offset="0" style="stop-color:#5ABCAB"/>
		<stop  offset="1" style="stop-color:#E6E99A"/>
	</linearGradient>
	<rect x="89.135" y="44.749" clip-path="url(#SVGID_7_)" fill="url(#SVGID_8_)" width="95.008" height="73.868"/>
</g>
<g>
	<defs>
		<path id="SVGID_9_" d="M163.489,118.619l-74.98,74.346c0.876,0.294,1.993,0.157,3.206-0.508l8.681-5.013
			c16.91-9.766,52.708-30.435,52.708-30.435l15.519-8.957l15.519-8.958l-20.65-20.475H163.489z"/>
	</defs>
	<clipPath id="SVGID_10_">
		<use xlink:href="#SVGID_9_"  overflow="visible"/>
	</clipPath>
	
		<linearGradient id="SVGID_11_" gradientUnits="userSpaceOnUse" x1="1.053323e-005" y1="225.166" x2="1" y2="225.166" gradientTransform="matrix(0 76.7776 -76.7776 0 17424.0215 118.6182)">
		<stop  offset="0" style="stop-color:#E53432"/>
		<stop  offset="0.1668" style="stop-color:#D73948"/>
		<stop  offset="0.5748" style="stop-color:#B33F72"/>
		<stop  offset="0.8619" style="stop-color:#9A4189"/>
		<stop  offset="1" style="stop-color:#904192"/>
	</linearGradient>
	<rect x="88.509" y="118.619" clip-path="url(#SVGID_10_)" fill="url(#SVGID_11_)" width="95.633" height="74.64"/>
</g>
<g>
	<defs>
		<path id="SVGID_12_" d="M163.49,118.617l20.652,20.477l22.7-13.108c3.436-1.982,6.163-3.556,7.134-4.117
			c3.384-1.955,3.181-4.613,0.49-6.225l-0.19-0.109c-0.03-0.018-0.06-0.034-0.09-0.05c-2.759-1.487-26.601-15.345-29.709-17.153
			l-0.334-0.193L163.49,118.617z"/>
	</defs>
	<clipPath id="SVGID_13_">
		<use xlink:href="#SVGID_12_"  overflow="visible"/>
	</clipPath>
	
		<linearGradient id="SVGID_14_" gradientUnits="userSpaceOnUse" x1="7.451472e-006" y1="225.166" x2="1" y2="225.166" gradientTransform="matrix(0 40.9551 -40.9551 0 9412.1211 98.1387)">
		<stop  offset="0" style="stop-color:#F18779"/>
		<stop  offset="0.1194" style="stop-color:#F2917A"/>
		<stop  offset="0.7128" style="stop-color:#FABC77"/>
		<stop  offset="1" style="stop-color:#FDCB73"/>
	</linearGradient>
	<rect x="163.49" y="98.139" clip-path="url(#SVGID_13_)" fill="url(#SVGID_14_)" width="53.87" height="40.955"/>
</g>
<g>
	<defs>
		<rect id="SVGID_15_" width="788.177" height="225.166"/>
	</defs>
	<clipPath id="SVGID_16_">
		<use xlink:href="#SVGID_15_"  overflow="visible"/>
	</clipPath>
	<path clip-path="url(#SVGID_16_)" fill="#FBFBFB" d="M570.667,148.424c-2.887,0-5.524-0.533-7.908-1.598
		c-2.387-1.066-4.392-2.705-6.011-4.916h-0.486c0.325,2.59,0.486,5.045,0.486,7.363v18.247h-6.713v-64.25h5.461l0.929,6.068h0.323
		c1.728-2.428,3.739-4.18,6.031-5.26c2.292-1.078,4.923-1.619,7.888-1.619c5.883,0,10.422,2.012,13.615,6.031
		c3.197,4.018,4.797,9.656,4.797,16.912c0,7.282-1.627,12.94-4.874,16.975C580.952,146.408,576.442,148.424,570.667,148.424
		 M569.696,108.166c-4.531,0-7.809,1.254-9.83,3.762c-2.024,2.509-3.063,6.502-3.118,11.978v1.496c0,6.231,1.04,10.69,3.118,13.373
		c2.077,2.684,5.408,4.024,9.991,4.024c3.833,0,6.834-1.549,9.007-4.651c2.17-3.101,3.256-7.377,3.256-12.828
		c0-5.529-1.086-9.771-3.256-12.724C576.691,109.641,573.634,108.166,569.696,108.166"/>
	<rect x="597.913" y="84.658" clip-path="url(#SVGID_16_)" fill="#FBFBFB" width="6.715" height="62.955"/>
	<path clip-path="url(#SVGID_16_)" fill="#FBFBFB" d="M643.241,147.613l-1.336-6.312h-0.322c-2.213,2.781-4.418,4.664-6.618,5.644
		c-2.197,0.987-4.942,1.479-8.232,1.479c-4.396,0-7.842-1.135-10.337-3.398c-2.496-2.268-3.743-5.489-3.743-9.67
		c0-8.955,7.162-13.649,21.482-14.08l7.53-0.245v-2.75c0-3.48-0.749-6.05-2.248-7.707c-1.496-1.662-3.893-2.488-7.181-2.488
		c-3.696,0-7.878,1.131-12.542,3.399l-2.064-5.139c2.185-1.188,4.578-2.119,7.181-2.793c2.604-0.674,5.212-1.012,7.83-1.012
		c5.285,0,9.203,1.174,11.754,3.52c2.547,2.347,3.822,6.109,3.822,11.289v30.263H643.241z M628.069,142.881
		c4.182,0,7.463-1.146,9.852-3.438c2.386-2.292,3.582-5.503,3.582-9.632v-4.004l-6.719,0.279c-5.34,0.193-9.19,1.02-11.551,2.494
		c-2.359,1.469-3.539,3.756-3.539,6.858c0,2.425,0.732,4.275,2.204,5.541C623.369,142.248,625.423,142.881,628.069,142.881"/>
	<path clip-path="url(#SVGID_16_)" fill="#FBFBFB" d="M652.117,103.27h7.199l9.71,25.287c2.131,5.775,3.455,9.94,3.969,12.506h0.322
		c0.352-1.379,1.088-3.73,2.205-7.064c1.119-3.333,4.782-13.573,10.985-30.729h7.205l-19.061,50.494
		c-1.887,4.99-4.092,8.531-6.617,10.623c-2.52,2.09-5.616,3.133-9.281,3.133c-2.053,0-4.074-0.229-6.073-0.686v-5.38
		c1.483,0.322,3.144,0.486,4.979,0.486c4.613,0,7.9-2.59,9.873-7.77l2.467-6.312L652.117,103.27z"/>
	<path clip-path="url(#SVGID_16_)" fill="#FBFBFB" d="M446.251,107.388c2.132,1.764,6.584,5.473,6.584,12.526
		c0,6.857-3.896,10.111-7.793,13.168c-1.207,1.203-2.597,2.508-2.597,4.549c0,2.035,1.39,3.15,2.415,3.986l3.34,2.592
		c4.081,3.433,7.787,6.588,7.787,12.992c0,8.717-8.442,17.527-24.391,17.527c-13.451,0-19.941-6.398-19.941-13.267
		c0-3.338,1.662-8.065,7.142-11.317c5.747-3.523,13.543-3.982,17.713-4.267c-1.3-1.668-2.782-3.43-2.782-6.301
		c0-1.574,0.466-2.504,0.927-3.621c-1.024,0.094-2.041,0.185-2.971,0.185c-9.828,0-15.392-7.328-15.392-14.558
		c0-4.268,1.949-9,5.933-12.43c5.287-4.359,11.595-5.101,16.608-5.101h19.101l-5.935,3.337H446.251z M439.665,148.574
		c-0.743-0.098-1.207-0.098-2.131-0.098c-0.834,0-5.85,0.19-9.741,1.493c-2.041,0.734-7.978,2.96-7.978,9.55
		c0,6.58,6.402,11.319,16.328,11.319c8.899,0,13.635-4.276,13.635-10.022C449.778,156.078,446.715,153.584,439.665,148.574
		 M442.356,130.949c2.131-2.137,2.313-5.102,2.313-6.773c0-6.676-3.987-17.065-11.682-17.065c-2.414,0-5.009,1.205-6.494,3.063
		c-1.574,1.949-2.041,4.449-2.041,6.865c0,6.213,3.617,16.508,11.595,16.508C438.368,133.547,440.866,132.433,442.356,130.949"/>
	<path clip-path="url(#SVGID_16_)" fill="#FBFBFB" d="M387.861,147.09c-14.723,0-22.593-11.484-22.593-21.857
		c0-12.133,9.906-22.497,23.987-22.497c13.606,0,22.125,10.643,22.125,21.85C411.38,135.51,402.958,147.09,387.861,147.09
		 M399.434,139.59c2.226-2.967,2.782-6.67,2.782-10.283c0-8.151-3.888-23.705-15.373-23.705c-3.055,0-6.109,1.207-8.332,3.152
		c-3.611,3.238-4.264,7.314-4.264,11.301c0,9.16,4.54,24.25,15.747,24.25C393.604,144.305,397.308,142.549,399.434,139.59"/>
	<path clip-path="url(#SVGID_16_)" fill="#FBFBFB" d="M337.669,147.09c-14.724,0-22.596-11.484-22.596-21.857
		c0-12.133,9.912-22.497,23.986-22.497c13.612,0,22.129,10.643,22.129,21.85C361.188,135.51,352.765,147.09,337.669,147.09
		 M349.245,139.59c2.223-2.967,2.779-6.67,2.779-10.283c0-8.151-3.89-23.705-15.374-23.705c-3.053,0-6.111,1.207-8.333,3.152
		c-3.611,3.238-4.259,7.314-4.259,11.301c0,9.16,4.536,24.25,15.745,24.25C343.415,144.305,347.116,142.549,349.245,139.59"/>
	<path clip-path="url(#SVGID_16_)" fill="#FBFBFB" d="M307.999,145.637l-13.314,3.074c-5.403,0.84-10.241,1.578-15.36,1.578
		c-25.697,0-35.471-18.9-35.471-33.703c0-18.058,13.872-34.814,37.614-34.814c5.029,0,9.867,0.744,14.241,1.955
		c6.983,1.957,10.241,4.373,12.29,5.773l-7.729,7.354l-3.257,0.742l2.328-3.725c-3.164-3.072-8.942-8.748-19.924-8.748
		c-14.709,0-25.789,11.176-25.789,27.467c0,17.498,12.664,33.977,32.955,33.977c5.965,0,9.03-1.209,11.825-2.328v-14.987
		l-14.057,0.742l7.446-4.005h19.737l-2.418,2.326c-0.656,0.56-0.746,0.75-0.932,1.488c-0.097,0.84-0.185,3.543-0.185,4.471V145.637z
		"/>
	<path clip-path="url(#SVGID_16_)" fill="#FBFBFB" d="M475.677,142.957c-3.073-0.281-3.717-0.836-3.717-4.473v-1.023V85.793
		c0.02-0.201,0.031-0.406,0.051-0.6c0.375-3.257,1.305-3.816,4.195-5.496h-13.318l-6.986,3.354h7.119v0.043l-0.006-0.035v54.402
		v3.074c0,1.858-0.367,2.141-2.512,4.932h16.481l3.445-2.041C478.848,143.232,477.263,143.143,475.677,142.957"/>
	<path clip-path="url(#SVGID_16_)" fill="#FBFBFB" d="M513.56,143.813c-1.013,0.554-2.032,1.205-3.043,1.664
		c-3.057,1.386-6.2,1.758-8.978,1.758c-2.952,0-7.578-0.192-12.298-3.608c-6.558-4.625-9.426-12.576-9.426-19.51
		c0-14.33,11.65-21.355,21.173-21.355c3.329,0,6.754,0.83,9.529,2.59c4.617,3.047,5.82,7.021,6.462,9.15l-21.72,8.785l-7.121,0.555
		c2.306,11.742,10.257,18.578,19.047,18.578c4.712,0,8.134-1.66,11.277-3.23L513.56,143.813z M504.873,116.258
		c1.753-0.646,2.679-1.203,2.679-2.496c0-3.695-4.158-7.951-9.157-7.951c-3.701,0-10.63,2.867-10.63,12.851
		c0,1.573,0.185,3.235,0.281,4.905L504.873,116.258z"/>
	<polygon clip-path="url(#SVGID_16_)" fill="#FBFBFB" points="522.485,103.395 522.485,109.497 521.743,109.497 521.743,103.395 
		519.725,103.395 519.725,102.762 524.503,102.762 524.503,103.395 	"/>
	<polygon clip-path="url(#SVGID_16_)" fill="#FBFBFB" points="530.802,109.496 530.802,103.338 530.767,103.338 528.888,109.496 
		528.309,109.496 526.413,103.338 526.39,103.338 526.39,109.496 525.716,109.496 525.716,102.762 526.87,102.762 528.585,108.203 
		528.611,108.203 530.298,102.762 531.468,102.762 531.468,109.496 	"/>
	<path clip-path="url(#SVGID_16_)" fill="#FCFCFD" d="M262.346,63.643h-4.626c0-0.635-0.44-2.436-1.317-5.406h-6.679
		c-0.906,2.922-1.36,4.722-1.36,5.406h-4.349c0-0.375,1.125-3.459,3.375-9.25c2.25-5.793,3.375-8.984,3.375-9.57h5.465
		c0,0.549,1.019,3.691,3.058,9.431C261.326,59.993,262.346,63.123,262.346,63.643 M255.667,55.477
		c-1.648-4.973-2.474-7.662-2.474-8.068h-0.231c0,0.377-0.852,3.066-2.557,8.068H255.667z"/>
	<path clip-path="url(#SVGID_16_)" fill="#FCFCFD" d="M280.987,63.643h-3.572c0-0.395-1.325-2.48-3.975-6.258
		c-2.775-3.98-4.357-6.703-4.742-8.168h-0.231c0.239,2.112,0.36,4.02,0.36,5.725c0,2.381,0.068,5.281,0.203,8.701h-3.557
		c0.145-2.986,0.219-6.268,0.219-9.844c0-3.517-0.074-6.51-0.219-8.976h4.295c0,0.509,1.19,2.549,3.57,6.115
		c2.536,3.787,3.989,6.355,4.366,7.705h0.218c-0.232-2.148-0.347-4.078-0.347-5.783c0-2.612-0.068-5.291-0.202-8.037h3.614
		c-0.137,2.39-0.203,5.382-0.203,8.976C280.784,57.422,280.85,60.704,280.987,63.643"/>
	<path clip-path="url(#SVGID_16_)" fill="#FCFCFD" d="M301.94,53.582c0,2.738-0.877,5.127-2.631,7.17
		c-1.755,2.045-4.212,3.066-7.374,3.066c-1.425,0-3.391-0.058-5.897-0.175c0.125-2.911,0.187-6.192,0.187-9.844
		c0-3.508-0.062-6.5-0.187-8.977h2.529c0.414,0,1.03-0.015,1.851-0.045c0.818-0.027,1.353-0.043,1.604-0.043
		c3.479,0,6.002,0.869,7.569,2.602C301.156,49.072,301.94,51.152,301.94,53.582 M297.993,54.205c0-1.852-0.54-3.41-1.619-4.678
		c-1.08-1.267-2.729-1.9-4.944-1.9c-0.416,0-0.984,0.043-1.707,0.131c0.096,1.926,0.145,3.939,0.145,6.041
		c0,2.304,0.047,4.588,0.145,6.853c0.626,0.123,1.251,0.188,1.879,0.188c2.072,0,3.607-0.645,4.605-1.932
		C297.493,57.623,297.993,56.055,297.993,54.205"/>
	<path clip-path="url(#SVGID_16_)" fill="#FCFCFD" d="M321.261,63.643h-4.279c-1.12-3.41-1.977-5.516-2.574-6.317
		c-0.598-0.8-1.561-1.199-2.891-1.199c-0.561,0-1.094,0.006-1.605,0.014c0,2.476,0.044,4.978,0.13,7.502h-4.018
		c0.124-2.91,0.187-6.192,0.187-9.844c0-3.508-0.063-6.5-0.187-8.976h2.501c0.289,0,0.892-0.016,1.814-0.045
		c0.92-0.028,1.771-0.043,2.551-0.043c4.424,0,6.635,1.511,6.635,4.541c0,2.398-1.262,4.07-3.788,5.015v0.217
		c0.973,0.27,1.828,1.029,2.56,2.275C319.028,58.033,320.017,60.322,321.261,63.643 M315.839,50.344
		c0-1.918-1.234-2.877-3.701-2.877c-0.904,0-1.705,0.068-2.4,0.203c0.107,1.494,0.16,3.442,0.16,5.84
		c0.529,0.021,0.978,0.029,1.343,0.029C314.307,53.539,315.839,52.475,315.839,50.344"/>
	<path clip-path="url(#SVGID_16_)" fill="#FCFCFD" d="M341.983,53.887c0,2.957-0.907,5.412-2.719,7.357
		c-1.811,1.948-4.052,2.92-6.721,2.92c-2.544,0-4.675-0.892-6.39-2.681c-1.715-1.787-2.573-4.061-2.573-6.817
		c0-2.959,0.905-5.412,2.718-7.357c1.812-1.945,4.051-2.92,6.722-2.92c2.543,0,4.673,0.891,6.389,2.674
		C341.124,48.846,341.983,51.119,341.983,53.887 M337.993,54.305c0-2.016-0.516-3.648-1.547-4.9
		c-1.032-1.252-2.305-1.881-3.816-1.881c-1.408,0-2.602,0.631-3.586,1.896c-0.983,1.262-1.475,2.858-1.475,4.785
		c0,2.004,0.519,3.633,1.555,4.891c1.036,1.258,2.306,1.889,3.808,1.889c1.407,0,2.604-0.635,3.586-1.903
		C337.501,57.815,337.993,56.223,337.993,54.305"/>
	<path clip-path="url(#SVGID_16_)" fill="#FCFCFD" d="M350.157,63.643h-4.092c0.126-2.986,0.19-6.268,0.19-9.844
		c0-3.517-0.064-6.51-0.19-8.976h4.092c-0.126,2.427-0.189,5.42-0.189,8.976C349.968,57.432,350.031,60.713,350.157,63.643"/>
	<path clip-path="url(#SVGID_16_)" fill="#FCFCFD" d="M371.112,53.582c0,2.738-0.879,5.127-2.631,7.17
		c-1.756,2.045-4.213,3.066-7.373,3.066c-1.427,0-3.394-0.058-5.898-0.175c0.123-2.911,0.185-6.192,0.185-9.844
		c0-3.508-0.062-6.5-0.185-8.977h2.527c0.416,0,1.032-0.015,1.852-0.045c0.82-0.027,1.353-0.043,1.605-0.043
		c3.478,0,6,0.869,7.569,2.602C370.328,49.072,371.112,51.152,371.112,53.582 M367.164,54.205c0-1.852-0.539-3.41-1.619-4.678
		c-1.079-1.267-2.728-1.9-4.944-1.9c-0.415,0-0.983,0.043-1.706,0.131c0.096,1.926,0.144,3.939,0.144,6.041
		c0,2.304,0.048,4.588,0.146,6.853c0.625,0.123,1.252,0.188,1.878,0.188c2.073,0,3.608-0.645,4.606-1.932
		C366.665,57.623,367.164,56.055,367.164,54.205"/>
	<path clip-path="url(#SVGID_16_)" fill="#FCFCFD" d="M398.909,63.643h-4.627c0-0.635-0.439-2.436-1.317-5.406h-6.678
		c-0.906,2.922-1.359,4.722-1.359,5.406h-4.35c0-0.375,1.126-3.459,3.375-9.25c2.25-5.793,3.375-8.984,3.375-9.57h5.464
		c0,0.549,1.019,3.691,3.058,9.431C397.889,59.993,398.909,63.123,398.909,63.643 M392.229,55.477
		c-1.647-4.973-2.473-7.662-2.473-8.068h-0.232c0,0.377-0.851,3.066-2.557,8.068H392.229z"/>
	<path clip-path="url(#SVGID_16_)" fill="#FCFCFD" d="M415.772,49.752c0,2.303-0.855,4.004-2.567,5.104
		c-1.71,1.097-3.809,1.646-6.295,1.646c-0.453,0-0.776-0.008-0.968-0.029c0,1.812,0.052,4.203,0.159,7.17h-4.063
		c0.125-2.783,0.188-6.065,0.188-9.844c0-3.469-0.063-6.463-0.188-8.977h2.516c0.356,0,1.041-0.015,2.052-0.045
		c1.012-0.027,1.889-0.042,2.631-0.042c1.83,0,3.379,0.414,4.641,1.244C415.142,46.809,415.772,48.065,415.772,49.752
		 M412.042,50.547c0-2.063-1.367-3.094-4.105-3.094c-0.685,0-1.409,0.071-2.168,0.217c0.105,1.82,0.158,3.883,0.158,6.188
		c0.24,0.019,0.519,0.029,0.838,0.029C410.284,53.887,412.042,52.774,412.042,50.547"/>
	<path clip-path="url(#SVGID_16_)" fill="#FCFCFD" d="M433.111,49.752c0,2.303-0.856,4.004-2.565,5.104
		c-1.711,1.097-3.81,1.646-6.297,1.646c-0.453,0-0.775-0.008-0.969-0.029c0,1.812,0.053,4.203,0.159,7.17h-4.062
		c0.125-2.783,0.189-6.065,0.189-9.844c0-3.469-0.064-6.463-0.189-8.977h2.515c0.357,0,1.041-0.015,2.053-0.045
		c1.012-0.027,1.888-0.042,2.63-0.042c1.832,0,3.379,0.414,4.642,1.244S433.111,48.065,433.111,49.752 M429.382,50.547
		c0-2.063-1.369-3.094-4.107-3.094c-0.684,0-1.407,0.071-2.168,0.217c0.106,1.82,0.16,3.883,0.16,6.188
		c0.24,0.019,0.519,0.029,0.838,0.029C427.622,53.887,429.382,52.774,429.382,50.547"/>
	<path clip-path="url(#SVGID_16_)" fill="#FCFCFD" d="M461.458,53.887c0,2.957-0.904,5.412-2.719,7.357
		c-1.81,1.948-4.05,2.92-6.72,2.92c-2.545,0-4.674-0.892-6.391-2.681c-1.715-1.787-2.572-4.061-2.572-6.817
		c0-2.959,0.904-5.412,2.717-7.357c1.813-1.945,4.052-2.92,6.722-2.92c2.545,0,4.676,0.891,6.391,2.674
		C460.601,48.846,461.458,51.119,461.458,53.887 M457.468,54.305c0-2.016-0.514-3.648-1.546-4.9
		c-1.032-1.252-2.304-1.881-3.815-1.881c-1.409,0-2.604,0.631-3.586,1.896c-0.985,1.262-1.475,2.858-1.475,4.785
		c0,2.004,0.518,3.633,1.555,4.891c1.035,1.258,2.305,1.889,3.808,1.889c1.409,0,2.602-0.635,3.584-1.903
		C456.978,57.815,457.468,56.223,457.468,54.305"/>
	<path clip-path="url(#SVGID_16_)" fill="#FCFCFD" d="M481.054,63.643h-3.57c0-0.395-1.326-2.48-3.977-6.258
		c-2.775-3.98-4.355-6.703-4.741-8.168h-0.232c0.241,2.112,0.362,4.02,0.362,5.725c0,2.381,0.067,5.281,0.203,8.701h-3.557
		c0.145-2.986,0.217-6.268,0.217-9.844c0-3.517-0.072-6.51-0.217-8.976h4.293c0,0.509,1.192,2.549,3.573,6.115
		c2.535,3.787,3.988,6.355,4.365,7.705h0.217c-0.233-2.148-0.348-4.078-0.348-5.783c0-2.612-0.067-5.291-0.202-8.037h3.614
		c-0.135,2.39-0.202,5.382-0.202,8.976C480.852,57.422,480.919,60.704,481.054,63.643"/>
</g>
</svg>
